{
  "name": "Dencentralized Internet",
  "description": "Initialize Decentralized Internet repo",
  "repository": "https://github.com/Lonero-Team/Decentralized-Internet",
  "masonVersion": "v1",
  "type": "application",
  "services": [
    {
      "name": "web",
      "image": "${app}/${branch}:${commit}"
    }
  ],
  "servers": [
    {
      "size": "standard-1x"
    }
  ]
}